<svg xmlns="http://www.w3.org/2000/svg" width="24" height="24" viewBox="0 0 24 24">
    <g fill="#676767" fill-rule="nonzero">
        <path d="M13.301 14.553h-1.143a.752.752 0 1 1 0-1.505h2.012a.5.5 0 0 0 .5-.5.5.5 0 0 0-.5-.498h-.943v-.694a.5.5 0 0 0-.5-.5.5.5 0 0 0-.498.5v.694h-.071c-.965 0-1.75.786-1.75 1.75 0 .965.785 1.75 1.75 1.75h1.143a.752.752 0 1 1 0 1.506h-2.05a.5.5 0 0 0-.498.5.5.5 0 0 0 .499.498h.98v.711a.5.5 0 0 0 .5.499.5.5 0 0 0 .499-.499v-.71h.095a1.75 1.75 0 0 0-.025-3.502z"/>
        <path d="M20.229 13.422a14.302 14.302 0 0 0-2.162-3.468 16.108 16.108 0 0 0-2.77-2.632l2.12-3.933a.492.492 0 0 0-.09-.59c-.55-.537-1.132-.799-1.78-.799-.595 0-1.14.225-1.614.424-.374.154-.727.304-1.014.304a.632.632 0 0 1-.237-.042c-.99-.362-1.75-.586-2.487-.586-.931 0-1.725.374-2.503 1.172a.502.502 0 0 0-.058.624l2.287 3.455a16.378 16.378 0 0 0-2.732 2.603 14.432 14.432 0 0 0-2.162 3.468 11.792 11.792 0 0 0-.99 4.707A3.877 3.877 0 0 0 7.91 22h9.438a3.877 3.877 0 0 0 3.871-3.871c0-1.605-.332-3.19-.99-4.707zM8.699 3.688c.482-.416.943-.599 1.496-.599.59 0 1.256.2 2.142.528.183.067.378.1.578.1.486 0 .952-.191 1.397-.378.428-.179.836-.35 1.23-.35.192 0 .462.034.803.275L14.35 6.973h-3.476L8.7 3.688zm8.648 17.314H7.91a2.877 2.877 0 0 1-2.874-2.873c0-2.665.977-5.193 2.898-7.514a15.263 15.263 0 0 1 2.824-2.644h3.734c.378.262 1.609 1.177 2.823 2.644 1.925 2.32 2.898 4.844 2.898 7.514a2.864 2.864 0 0 1-2.865 2.873z"/>
    </g>
</svg>
