<svg xmlns="http://www.w3.org/2000/svg" width="24" height="24" viewBox="0 0 24 24">
    <g fill="none" fill-rule="evenodd">
        <g fill="#676767" fill-rule="nonzero">
            <path d="M19.956 4.016H3.982C2.89 4.016 2 4.906 2 6v1.935c0 .219.178.397.397.397h.318v10.95c0 .755.615 1.37 1.37 1.37h15.768c.755 0 1.37-.615 1.37-1.37V8.33h.317c.22 0 .398-.178.398-.397V5.999c0-1.093-.89-1.983-1.982-1.983zm.472 15.264a.577.577 0 0 1-.575.576H4.085a.577.577 0 0 1-.576-.576V8.33h16.92v10.95zm.715-11.743H2.794V5.999A1.19 1.19 0 0 1 3.982 4.81h15.974a1.19 1.19 0 0 1 1.187 1.188v1.538z"/>
            <path d="M14.19 11.37H9.747c-.943 0-1.711.769-1.711 1.712 0 .944.768 1.712 1.711 1.712h4.441c.944 0 1.712-.768 1.712-1.712 0-.943-.768-1.711-1.712-1.711zm0 2.63H9.747a.918.918 0 0 1 0-1.835h4.441a.918.918 0 0 1 0 1.834z"/>
        </g>
        <path d="M0 0h24v24H0z"/>
    </g>
</svg>
